…
# 如果我们想要每个摘要有一列，如上面的 `summarize` 调用，我们必须定义一个返回数据框的函数，如下所示：
median_min_max <- function(x){
  qs <- quantile(x, c(0.5, 0, 1))
  data.frame(median = qs[1], min = qs[2], max = qs[3])
}
heights |> summarize(median_min_max(height))
#>   median min  max
#> 1   68.5  50 82.7
```
- 使用group_by总结
```r
# 我们可能想分别计算男性和女性身高的平均值和标准差。该`group_by`函数可以帮助我们做到这一点
heights |> group_by(sex)
#> # A tibble: 1,050 × 2
#> # Groups:   sex [2]
#>   sex   height
#>   <fct>  <dbl>
#> 1 Male      75
#> 2 Male      70
#> 3 Male      68
#> 4 Male      74
#> 5 Male      61
#> # ℹ 1,045 more rows
…
